0 575.075104606932
1 559.9441949412737
2 559.1134235574183
3 538.4428670346713
4 520.3230794647387
5 520.1840146161951
6 518.315238542618
7 500.272858314662
8 494.98460114417844
9 488.17491007577223
10 477.30379402410966
11 477.2978240998907
12 472.8660728145976
13 457.5893127261145
14 457.0923567523472
15 459.6218088441552
16 463.7026402558798
17 461.02210458690536
18 461.37454190146303
19 455.0270929943566
20 455.8647723854369
21 446.3418535577925
22 444.65340543772965
23 438.14550401699796
24 442.24950850185166
25 440.99547144290193
26 440.00087655527204
27 429.7928703809173
28 426.0274510530446
29 431.5650683137197
30 433.63214019599377
31 437.47683993140186
32 431.36102972373266
33 426.17165982927645
34 420.1928017234347
35 422.19971656069026
36 423.3049521344113
37 414.67822703183595
38 404.8058133698332
39 402.01771491341685
40 402.4845003799742
41 398.3433409859156
42 404.71795292110386
43 410.604518236635
44 398.7934426689783
45 396.36348183851874
46 401.2047508775333
47 399.5086164346033
48 397.18248517203523
49 393.4834819295986
50 389.4326850648784
51 380.2078628359688
52 382.12153645604974
53 381.39008181470473
54 378.10270830287146
55 376.9835030742081
56 374.90291439732357
57 376.6563230832699
58 372.39426018597953
59 378.63142530322637
60 382.29460628028784
61 380.4006716656623
62 379.0173751656668
63 376.404325226531
64 377.09923981856633
65 377.0266304766091
66 376.4427419696664
67 373.7579557349885
68 377.6346475337852
69 374.4270009268312
70 372.2525294049433
71 371.6635690702661
72 371.91602248726645
73 371.0329758579329
74 368.97494444669474
75 372.0837075404948
76 373.0866307190692
77 371.08434222817874
78 366.8360492835073
79 364.21050312906567
80 367.7667814146734
81 373.0261857022931
82 370.0446113547717
83 360.26328676753906
84 364.69816462668706
85 368.9079319393352
86 362.6017053946464
87 362.7993975374684
88 364.2507235944175
89 355.81387669612536
90 356.3623227576837
91 359.26752016591144
92 355.7477554054578
93 348.97282576845976
94 347.9701359263396
95 342.29691771576466
96 339.6492907787731
97 339.8666013591735
98 339.8822476763141
99 340.14433585378816
100 330.6578244868605
101 330.647230791237
102 335.66789801789224
103 330.47977316577396
104 329.5179233739246
105 331.44240152109114
106 330.9060736399358
107 330.46318682801257
108 332.15185726771864
109 332.0027651092876
110 337.83350637481215
111 336.6781973156922
112 337.6150434477845
113 339.5265902398141
114 337.8806725758302
115 340.63617075680713
116 339.83440496795987
117 337.67489753771486
118 338.40345090097225
119 339.20344600148906
120 338.89760555357554
121 343.15687153047145
122 342.59730563897676
123 342.0094253679529
124 340.39116462192067
125 341.00526611400267
126 337.12539375700544
127 338.8986526905969
128 339.1739927840182
129 340.18051435265147
130 339.11550841263704
131 337.9053703445276
132 337.22090918919855
133 333.7032806136327
134 331.53404007574915
135 330.31023446025296
136 329.2221801245502
137 331.5822132860488
138 330.04360133296495
139 329.5726954747458
140 326.7200648556506
141 324.5553368707611
142 321.6759877050093
143 316.26835620293014
144 319.04876220120366
145 315.42749875238565
146 318.8780729716164
147 319.44148568678406
148 316.16706017381154
149 318.0329721964231
150 311.36827657900426
151 308.2794202709896
152 307.86098358231226
153 304.9777653335027
154 305.7534648589601
155 301.40869013624933
156 304.64627218630756
157 303.9213843529294
158 301.45636056425593
159 301.0897723287273
160 301.31111017908137
161 300.0934571787113
162 299.84157648482125
163 300.2431316124397
164 299.41308529786755
165 298.82720562918286
166 303.1278215715741
167 303.1965049485228
168 302.29547136755485
169 304.2284592192557
170 305.2755214792176
171 305.6918528275453
172 305.7394202256289
173 306.44007639779704
174 308.61195770085754
175 308.37277238587666
176 307.9475132147692
177 308.37531808676397
178 310.62394795851264
179 312.88453174580525
180 315.2468049039303
181 315.4878216911463
182 313.52600145555806
183 312.00597390418193
184 310.5396369158102
185 314.00044196700435
186 312.3394806537346
187 313.20273552113986
188 310.8365915225448
189 313.3998125600716
190 314.2665834486721
191 310.8566587673371
192 313.646301886583
193 312.9316757658316
194 312.12286692680084
195 313.22832422557343
196 311.79933613672245
197 314.85671785799804
198 312.49516681717677
199 310.8496741084481
200 312.9635748066845
201 315.1445703352224
202 313.7963691536503
203 314.06927621970414
204 318.995141203735
205 319.5009813476475
206 319.7658537553041
207 320.91184357984883
208 324.4549565726893
209 323.5672687419277
210 329.54026107213105
211 330.48916042487355
212 330.4321035423109
213 324.79171128841534
214 329.081618848324
215 325.77623652750736
216 325.67769100481433
217 323.2485918375654
218 320.52828644728305
219 320.7712421170617
220 322.4394428165522
221 318.0568976633483
222 316.0779501714416
223 314.2468285513197
224 304.9752582680356
225 302.4243238002651
226 302.2926656993682
227 306.99512134138075
228 307.5579837771812
229 311.27501324642014
230 310.2578058385196
231 310.3247973508887
232 310.35903209583023
233 306.0795763589142
234 305.4820544607201
235 303.5440024716171
236 305.60211859649274
237 305.67039168155634
238 311.9503895914025
239 313.499993818603
240 311.9496688675545
241 308.35005421539745
242 306.28626405896455
243 310.0800393887685
244 307.3986772475435
245 309.88260464425787
246 311.84299146442487
247 308.2700051956272
248 311.25363858496706
249 312.7749570709043
250 312.63016606599746
251 307.609866088005
252 306.7231506922229
253 311.0696218047381
254 310.2560372461983
255 309.0399141595647
256 307.4883724433292
257 306.2253578880835
258 303.6033437797798
259 300.6074062016168
260 297.2329923343668
261 293.6160351300003
262 288.27540943999577
263 287.7331547622588
264 282.28562652876
265 280.0751656102539
266 279.07480727311935
267 277.61612381501976
268 276.25669654206513
269 278.29605851370144
270 278.3206335253433
271 275.0387057284552
272 277.00957199290826
273 280.3365761966582
274 278.4511379892193
275 272.2254909962293
276 274.5563246798068
277 270.2751723034347
278 265.6253017483694
279 264.2200494975512
280 265.31166121319615
281 268.9446938874861
282 267.8618280579767
283 267.57680431193717
284 267.41817203558804
285 266.7672107444781
286 270.72674317187494
287 261.52425791474514
288 256.6709415912081
289 255.39706968614976
290 252.4690473919996
291 250.4888675296217
292 249.17554764576315
293 251.088650901039
294 248.16546211932928
295 249.4300918882792
296 250.96128871877082
297 249.52993885395725
298 247.581631918809
299 246.36729140169882
300 244.18098954739227
301 244.67657408216292
302 242.03662094239982
303 242.53081804364882
304 245.20290303922303
305 246.88800824418607
306 248.98835011380532
307 248.38462969964672
308 249.2319939382947
309 247.31145287700787
310 243.7960212666953
311 242.09613716654687
312 244.68991718516955
313 246.20139635679504
314 241.70633150256256
315 239.77692911440354
316 244.18657258630418
317 244.18351146586957
318 240.86443720148552
319 238.74312871747927
320 238.33182483732847
321 240.8703927660118
322 240.4838642071895
323 241.28607057593842
324 230.1079799113658
325 228.59969795904107
326 222.84480379099503
327 219.9279893454248
328 217.53631433143875
329 219.42238128906243
330 218.4575839982228
331 215.21322643968372
332 214.28079004149419
333 212.74838722588615
334 209.2744021584639
335 209.72743675976727
336 204.1839032696458
337 202.91389616227465
338 202.20354529714248
339 202.16605967405846
340 204.08912585667804
341 204.2699490067327
342 204.30340238270452
343 207.36492715896054
344 210.0505388892983
345 212.56888546346391
346 214.59777917349612
347 211.62807759240587
348 210.88628088444042
349 205.6190162653724
350 208.89092067109138
351 206.322395443192
352 206.32587150716105
353 206.20217381557123
354 204.5199076843628
355 200.80555707365707
356 201.64233242291405
357 200.38179369056877
358 199.60101806509695
359 198.5878581845053
360 198.65662122242588
361 200.68737563673545
362 200.63485531339742
363 198.43085311126524
364 196.8346745858843
365 195.5460753205856
366 194.13090485388938
367 192.91017920457492
368 193.04604766255952
369 192.5946642324356
370 192.59876683869024
371 194.31308809557814
372 189.99724607229263
373 188.08503642128912
374 189.21461159023235
375 189.51420185128896
376 190.04564787426128
377 190.89700756623404
378 188.99150682256587
379 191.68687512209698
380 192.8282801982776
381 193.706046746594
382 194.1992529751898
383 195.29147108193698
384 196.17154776809986
385 196.1708402647087
386 197.43820727211119
387 194.8431171690503
388 196.1430232757317
389 197.04763802346744
390 194.09030890347904
391 193.54442806100246
392 196.10721194420373
393 194.29681046363748
394 195.72502435393457
395 197.1290105879065
396 197.0215519158398
397 194.43326866888216
398 194.86444637505375
399 196.60681333718722
400 194.87384184353402
401 192.29132894763563
402 194.9369967781261
403 193.75498493796493
404 193.5913825043248
405 193.73052110419476
406 197.71248823739734
407 193.34500740993224
408 194.32688095932932
409 190.72834694312454
410 189.13613974409253
411 192.9126090389708
412 191.9194366253157
413 190.24289153675738
414 187.79407938574462
415 187.8082536653869
416 186.75808670968615
417 186.7254297876917
418 187.425047512025
419 186.49773605953396
420 187.22841996495768
421 186.95952309546604
422 188.09830349414634
423 185.2977724028468
424 183.95586456181246
425 186.27071599044865
426 182.1065990956065
427 178.2980278936436
428 176.17159524694947
429 176.82180260368634
430 178.06325082970497
431 178.1881043646232
432 176.58248777336019
433 176.87560108754963
434 177.90698631777636
435 179.8334164284796
436 180.20130692594753
437 179.03459420893944
438 178.406884001279
439 179.99613380073242
440 182.7347787244025
441 183.49774324621276
442 187.50158529245266
443 190.96152289976777
444 193.40701741266318
445 194.58480394783584
446 194.00290990710423
447 191.76394292820567
448 196.0236210722702
449 198.82344719380177
450 200.68054654112635
451 201.83086033566283
452 202.94113461044304
453 203.9088002526655
454 204.31429224545835
455 204.3564872070124
456 201.9750868905629
457 203.70330857247478
458 204.24338604372753
459 207.14408596400136
460 203.00085516164702
461 200.86333417350758
462 199.70693121785757
463 198.04975007158245
464 197.46533641267123
465 196.71565800250085
466 195.5598948068186
467 196.27159798696098
468 197.83821117200716
469 200.15145195023848
470 198.86141465845708
471 199.07236768136508
472 195.83613752304294
473 198.04315456169886
474 198.59184597421236
475 202.3449773839085
476 201.44045135571017
477 200.7786627530548
478 197.7520312842822
479 199.4224639586108
480 196.2459203061792
481 196.44450814253986
482 194.3267673466493
483 194.98240663131352
484 190.0443655404166
485 186.86512329932103
486 185.04839907788784
487 183.1708714209273
488 183.45518957456343
489 180.5903015233792
490 179.82083695316928
491 181.06115833084436
492 178.82128322547953
493 179.36787464041507
494 184.1054747586667
495 182.22761328273398
496 181.46449609231092
497 181.49655716013928
498 181.49642207655532
499 180.50953882775283
500 181.06623534577636
